{
  "extends": [
    "tslint-microsoft-contrib",
    "tslint-config-prettier"
  ],
  "rules": {
    "mocha-no-side-effect-code": false,
    "missing-jsdoc": false,
    "no-relative-imports": false,
    "export-name": false,
    "import-name": false,
    "no-any": false,
    "completed-docs": false,
    "promise-function-async": false,
    "no-void-expression": false,
    "no-redundant-jsdoc": false,
    "prefer-type-cast": false,
    "no-default-export": false,
    "ordered-imports": false,
    "no-increment-decrement": false,
    "newline-before-return": false,
    "no-use-before-declare": false,
    "no-unsafe-any": false,
    "no-single-line-block-comment": false,
    "no-unused-expression": false,
    "no-import-side-effect": false,
    "no-shadowed-variable": false,
    "prefer-for-of": false,
    "no-console": false,
    "cyclomatic-complexity": false,
    "max-classes-per-file": false,
    "no-implicit-dependencies": false,
    "no-suspicious-comment": false,
    "typedef": [
      true,
      "parameter",
      "arrow-parameter",
      "property-declaration",
      "member-variable-declaration"
    ],
    "max-func-body-length": 150,
    "no-reserved-keywords": [
      false,
      "allow-quoted"
    ]
  }
}